Basics of data import and cleaning in pathviewR • pathviewR
…
.csv files exported from Motive can be imported via read_motive_csv()

## Import the Motive example data included in 
## the package

motive_data <-
  read_motive_csv(
    system.file("extdata", "pathviewR_motive_example_data.csv",
                package = 'pathviewR')
  )

## This produces a tibble 
motive_data
#> # A tibble: 934 x 26
#>    frame time_sec device02_rotati… device02_rotati… device02_rotati…
#>    <int>    <dbl>            <dbl>            <dbl>            <dbl>
#>  1 72210     722.           0.135            -0.977          -0.112 
#>  2 72211     722.           0.0819           -0.978          -0.0991
#>  3 72212     722.           0.211            -0.973          -0.0939
#>  4 72213     722.           0.196            -0.972          -0.128 
#>  5 72214     722.           0.131            -0.975          -0.121 
#>  6 72215     722.           0.0935           -0.975          -0.105 
#>  7 72216     722.           0.180            -0.975          -0.106 
#>  8 72217     722.           0.164            -0.972          -0.149 
#>  9 72218     722.           0.120            -0.973          -0.149 
#> 10 72219     722.           0.155            -0.970          -0.120 
#> # … with 924 more rows, and 21 more variables: device02_rotation_w <dbl>,
#> #   device02_position_x <dbl>, device02_position_y <dbl>,
#> #   device02_position_z <dbl>, device02_mean_marker_error <dbl>,
#> #   device03_rotation_x <dbl>, device03_rotation_y <dbl>,
#> #   device03_rotation_z <dbl>, device03_rotation_w <dbl>,
#> #   device03_position_x <dbl>, device03_position_y <dbl>,
#> #   device03_position_z <dbl>, device03_mean_marker_error <dbl>,
#> #   device05_rotation_x <dbl>, device05_rotation_y <dbl>,
#> #   device05_rotation_z <dbl>, device05_rotation_w <dbl>,
…
## Import the Flydra example data included in 
## the package
flydra_data <-
  read_flydra_mat(
    system.file("extdata",
                "pathviewR_flydra_example_data.mat",
                package = 'pathviewR'),
    subject_name = "birdie_wooster"
  )

## Similarly, this produces a tibble with important 
## metadata as attributes
flydra_data
#> # A tibble: 7,744 x 6
#>    frame[,1] time_sec subject position_length… position_width[… position_height…
#>        <int>    <dbl> <chr>              <dbl>            <dbl>            <dbl>
#>  1       746     0    birdie…            0.869         -0.00417             1.31
#>  2       747     0.01 birdie…            0.864         -0.00614             1.31
#>  3       748     0.02 birdie…            0.863         -0.00695             1.31
#>  4       749     0.03 birdie…            0.862         -0.00672             1.31
#>  5       750     0.04 birdie…            0.862         -0.00644             1.31
#>  6       751     0.05 birdie…            0.862         -0.00619             1.31
#>  7       752     0.06 birdie…            0.863         -0.00667             1.31
#>  8       753     0.07 birdie…            0.864         -0.00712             1.31
#>  9       754     0.08 birdie…            0.865         -0.00727             1.31
#> 10       755     0.09 birdie…            0.865         -0.00760             1.31
#> # … with 7,734 more rows
…
