Estimating visual perceptions from tracking data • pathviewR
…
Therefore we will use the following code:

motive_V <- 
  motive_full %>% 
  insert_treatments(vertex_height = -0.3855,
                    vertex_angle = 45,
                    stim_param_pos = 0.1,
                    stim_param_neg = 0.2,
                    treatment = "latB")

Our object now has the variables, vertex_height, vertex_angle, stim_param_pos, and stim_param_neg which are needed to calculate visual perceptions. The variable treatment has also been included and this information has been stored in the object’s metadata.

motive_V
#> # A tibble: 449 x 29
#>    vertex_height vertex_angle stim_param_pos stim_param_neg treatment frame
#>            <dbl>        <dbl>          <dbl>          <dbl> <chr>     <int>
#>  1        -0.386        0.785            0.1            0.2 latB      72213
#>  2        -0.386        0.785            0.1            0.2 latB      72214
#>  3        -0.386        0.785            0.1            0.2 latB      72215
#>  4        -0.386        0.785            0.1            0.2 latB      72216
#>  5        -0.386        0.785            0.1            0.2 latB      72217
#>  6        -0.386        0.785            0.1            0.2 latB      72218
#>  7        -0.386        0.785            0.1            0.2 latB      72219
#>  8        -0.386        0.785            0.1            0.2 latB      72220
#>  9        -0.386        0.785            0.1            0.2 latB      72221
#> 10        -0.386        0.785            0.1            0.2 latB      72222
#> # … with 439 more rows, and 23 more variables: time_sec <dbl>, subject <chr>,
#> #   position_length <dbl>, position_width <dbl>, position_height <dbl>,
#> #   rotation_length <dbl>, rotation_width <dbl>, rotation_height <dbl>,
#> #   rotation_real <dbl>, mean_marker_error <dbl>, velocity <dbl>,
#> #   length_inst_vel <dbl>, width_inst_vel <dbl>, height_inst_vel <dbl>,
#> #   traj_id <int>, file_sub_traj <chr>, traj_length <int>, start_length <dbl>,
#> #   end_length <dbl>, length_diff <dbl>, start_length_sign <dbl>,
#> #   end_length_sign <dbl>, direction <chr>
…
Calculating spatial frequency

To calculate the spatial frequency of the visual stimuli as perceived by the subject some distance from the stimuli, we will use calc_sf_V() and calc_sf_box depending on the configuration of the tunnel for each experiment.

motive_V_sf <- 
  motive_V %>%
  calc_sf_V(simplify_output = FALSE)

## The resulting object contains 10 new variables which are values involved in 
## the calculation of spatial frequency.
motive_V_sf
#> # A tibble: 449 x 39
#>    vertex_height vertex_angle stim_param_pos stim_param_neg treatment frame
#>            <dbl>        <dbl>          <dbl>          <dbl> <chr>     <int>
#>  1        -0.386        0.785            0.1            0.2 latB      72213
#>  2        -0.386        0.785            0.1            0.2 latB      72214
#>  3        -0.386        0.785            0.1            0.2 latB      72215
#>  4        -0.386        0.785            0.1            0.2 latB      72216
#>  5        -0.386        0.785            0.1            0.2 latB      72217
#>  6        -0.386        0.785            0.1            0.2 latB      72218
#>  7        -0.386        0.785            0.1            0.2 latB      72219
#>  8        -0.386        0.785            0.1            0.2 latB      72220
#>  9        -0.386        0.785            0.1            0.2 latB      72221
#> 10        -0.386        0.785            0.1            0.2 latB      72222
#> # … with 439 more rows, and 33 more variables: time_sec <dbl>, subject <chr>,
#> #   position_length <dbl>, position_width <dbl>, position_height <dbl>,
#> #   rotation_length <dbl>, rotation_width <dbl>, rotation_height <dbl>,
#> #   rotation_real <dbl>, mean_marker_error <dbl>, velocity <dbl>,
#> #   length_inst_vel <dbl>, width_inst_vel <dbl>, height_inst_vel <dbl>,
#> #   traj_id <int>, file_sub_traj <chr>, traj_length <int>, start_length <dbl>,
#> #   end_length <dbl>, length_diff <dbl>, start_length_sign <dbl>,
#> #   end_length_sign <dbl>, direction <chr>, height_2_vertex <dbl>,
#> #   height_2_screen <dbl>, width_2_screen_pos <dbl>, width_2_screen_neg <dbl>,
#> #   bound_pos <dbl>, bound_neg <dbl>, min_dist_pos <dbl>, min_dist_neg <dbl>,
#> #   sf_pos <dbl>, sf_neg <dbl>

flydra_box_sf <- 
  flydra_box %>% 
  calc_sf_box()
flydra_box_sf
#> # A tibble: 133 x 26
#>    pos_wall neg_wall front_wall stim_param_pos stim_param_neg stim_param_front
#>       <dbl>    <dbl>      <dbl>          <dbl>          <dbl>            <dbl>
#>  1      0.5      0.5        0.5            0.1            0.2              0.2
#>  2      0.5      0.5        0.5            0.1            0.2              0.2
#>  3      0.5      0.5        0.5            0.1            0.2              0.2
#>  4      0.5      0.5        0.5            0.1            0.2              0.2
#>  5      0.5      0.5        0.5            0.1            0.2              0.2
#>  6      0.5      0.5        0.5            0.1            0.2              0.2
#>  7      0.5      0.5        0.5            0.1            0.2              0.2
#>  8      0.5      0.5        0.5            0.1            0.2              0.2
#>  9      0.5      0.5        0.5            0.1            0.2              0.2
#> 10      0.5      0.5        0.5            0.1            0.2              0.2
#> # … with 123 more rows, and 20 more variables: treatment <chr>, frame <dbl>,
#> #   time_sec <dbl>, subject <chr>, position_length <dbl>, position_width <dbl>,
#> #   position_height <dbl>, traj_id <int>, file_sub_traj <chr>,
#> #   traj_length <int>, start_length <dbl>, end_length <dbl>, length_diff <dbl>,
#> #   start_length_sign <dbl>, end_length_sign <dbl>, direction <chr>,
#> #   min_dist_pos <dbl>, min_dist_neg <dbl>, sf_pos <dbl>, sf_neg <dbl>

simplify_output = TRUE returns an object containing the 4 new variables min_dist_pos, mind_dist_neg, sf_pos, sf_neg. Note for calc_sf_box, there is no need for a simplify_output argument.

Calculating visual angles

To calculate an estimation of the visual angles perceived by the subject, we will use calc_vis_angle_V and not calc_vis_angle_box because the data was collected in a V-shaped tunnel.

motive_V_angle <- 
  motive_V %>% 
  calc_vis_angle_V(simplify_output=FALSE)

## The resulting object contains 12 new variables which are values involved in the calculation of visual angles. 
motive_V_angle 
#> # A tibble: 449 x 41
#>    vertex_height vertex_angle stim_param_pos stim_param_neg treatment frame
#>            <dbl>        <dbl>          <dbl>          <dbl> <chr>     <int>
#>  1        -0.386        0.785            0.1            0.2 latB      72213
#>  2        -0.386        0.785            0.1            0.2 latB      72214
#>  3        -0.386        0.785            0.1            0.2 latB      72215
#>  4        -0.386        0.785            0.1            0.2 latB      72216
#>  5        -0.386        0.785            0.1            0.2 latB      72217
#>  6        -0.386        0.785            0.1            0.2 latB      72218
#>  7        -0.386        0.785            0.1            0.2 latB      72219
#>  8        -0.386        0.785            0.1            0.2 latB      72220
#>  9        -0.386        0.785            0.1            0.2 latB      72221
#> 10        -0.386        0.785            0.1            0.2 latB      72222
#> # … with 439 more rows, and 35 more variables: time_sec <dbl>, subject <chr>,
#> #   position_length <dbl>, position_width <dbl>, position_height <dbl>,
#> #   rotation_length <dbl>, rotation_width <dbl>, rotation_height <dbl>,
#> #   rotation_real <dbl>, mean_marker_error <dbl>, velocity <dbl>,
#> #   length_inst_vel <dbl>, width_inst_vel <dbl>, height_inst_vel <dbl>,
#> #   traj_id <int>, file_sub_traj <chr>, traj_length <int>, start_length <dbl>,
#> #   end_length <dbl>, length_diff <dbl>, start_length_sign <dbl>,
#> #   end_length_sign <dbl>, direction <chr>, height_2_vertex <dbl>,
#> #   height_2_screen <dbl>, width_2_screen_pos <dbl>, width_2_screen_neg <dbl>,
…
